^C:\TOOLS\PRINTNIGHTMARE\PRINT-NIGHTMARE\PCH.CPP
/c /Zi /nologo /W3 /WX- /diagnostics:column /sdl /O2 /Oi /GL /D NDEBUG /D PRINTNIGHTMARE_EXPORTS /D _WINDOWS /D _USRDLL /D _WINDLL /D _UNICODE /D UNICODE /Gm- /EHsc /MD /GS /Gy /fp:precise /permissive- /Zc:wchar_t /Zc:forScope /Zc:inline /Yc"pch.h" /Fp"X64\RELEASE\PRINT-NIGHTMARE.PCH" /Fo"X64\RELEASE\\" /Fd"X64\RELEASE\VC142.PDB" /external:env:EXTERNAL_INCLUDE /external:W3 /Gd /TP /FC C:\TOOLS\PRINTNIGHTMARE\PRINT-NIGHTMARE\PCH.CPP
^C:\TOOLS\PRINTNIGHTMARE\PRINT-NIGHTMARE\DLLMAIN.CPP
/c /Zi /nologo /W3 /WX- /diagnostics:column /sdl /O2 /Oi /GL /D NDEBUG /D PRINTNIGHTMARE_EXPORTS /D _WINDOWS /D _USRDLL /D _WINDLL /D _UNICODE /D UNICODE /Gm- /EHsc /MD /GS /Gy /fp:precise /permissive- /Zc:wchar_t /Zc:forScope /Zc:inline /Yu"pch.h" /Fp"X64\RELEASE\PRINT-NIGHTMARE.PCH" /Fo"X64\RELEASE\\" /Fd"X64\RELEASE\VC142.PDB" /external:env:EXTERNAL_INCLUDE /external:W3 /Gd /TP /FC C:\TOOLS\PRINTNIGHTMARE\PRINT-NIGHTMARE\DLLMAIN.CPP
^C:\TOOLS\PRINTNIGHTMARE-GITLAB\PRINT-NIGHTMARE-DLL\PCH.CPP
/c /Zi /nologo /W3 /WX- /diagnostics:column /sdl /O2 /Oi /GL /D NDEBUG /D PRINTNIGHTMARE_EXPORTS /D _WINDOWS /D _USRDLL /D _WINDLL /D _UNICODE /D UNICODE /Gm- /EHsc /MD /GS /Gy /fp:precise /permissive- /Zc:wchar_t /Zc:forScope /Zc:inline /Yc"pch.h" /Fp"X64\RELEASE\PRINT-NIGHTMARE.PCH" /Fo"X64\RELEASE\\" /Fd"X64\RELEASE\VC142.PDB" /external:env:EXTERNAL_INCLUDE /external:W3 /Gd /TP /FC C:\TOOLS\PRINTNIGHTMARE-GITLAB\PRINT-NIGHTMARE-DLL\PCH.CPP
^C:\TOOLS\PRINTNIGHTMARE-GITLAB\PRINT-NIGHTMARE-DLL\DLLMAIN.CPP
/c /Zi /nologo /W3 /WX- /diagnostics:column /sdl /O2 /Oi /GL /D NDEBUG /D PRINTNIGHTMARE_EXPORTS /D _WINDOWS /D _USRDLL /D _WINDLL /D _UNICODE /D UNICODE /Gm- /EHsc /MD /GS /Gy /fp:precise /permissive- /Zc:wchar_t /Zc:forScope /Zc:inline /Yu"pch.h" /Fp"X64\RELEASE\PRINT-NIGHTMARE.PCH" /Fo"X64\RELEASE\\" /Fd"X64\RELEASE\VC142.PDB" /external:env:EXTERNAL_INCLUDE /external:W3 /Gd /TP /FC C:\TOOLS\PRINTNIGHTMARE-GITLAB\PRINT-NIGHTMARE-DLL\DLLMAIN.CPP
